[
  {
    "id": 1018,
    "name": "Андорра",
    "code": "AD"
  },
  {
    "id": 1019,
    "name": "Объединенные Арабские Эмираты",
    "code": "AE"
  },
  {
    "id": 1020,
    "name": "Афганистан",
    "code": "AF"
  },
  {
    "id": 1021,
    "name": "Antigua and Barbuda",
    "code": "AG"
  },
  {
    "id": 1022,
    "name": "Ангуила",
    "code": "AI"
  },
  {
    "id": 1023,
    "name": "Албания",
    "code": "AL"
  },
  {
    "id": 1024,
    "name": "Армения",
    "code": "AM"
  },
  {
    "id": 1025,
    "name": "Нидерландские Антильские острова",
    "code": "AN"
  },
  {
    "id": 1026,
    "name": "Ангола",
    "code": "AO"
  },
  {
    "id": 1027,
    "name": "Antarctica",
    "code": "AQ"
  },
  {
    "id": 1028,
    "name": "Аргентина",
    "code": "AR"
  },
  {
    "id": 1029,
    "name": "American Samoa",
    "code": "AS"
  },
  {
    "id": 1030,
    "name": "Австрия",
    "code": "AT"
  },
  {
    "id": 1031,
    "name": "Австралия",
    "code": "AU"
  },
  {
    "id": 1032,
    "name": "Аруба",
    "code": "AW"
  },
  {
    "id": 1033,
    "name": "Åland Islands",
    "code": "AX"
  },
  {
    "id": 1034,
    "name": "Азербайджан",
    "code": "AZ"
  },
  {
    "id": 1035,
    "name": "Босния и Герцеговина",
    "code": "BA"
  },
  {
    "id": 1036,
    "name": "Барбадос",
    "code": "BB"
  },
  {
    "id": 1037,
    "name": "Бангладеш",
    "code": "BD"
  },
  {
    "id": 1038,
    "name": "Бельгия",
    "code": "BE"
  },
  {
    "id": 1039,
    "name": "Буркина-Фасо",
    "code": "BF"
  },
  {
    "id": 1040,
    "name": "Болгария",
    "code": "BG"
  },
  {
    "id": 1041,
    "name": "Бахрейн",
    "code": "BH"
  },
  {
    "id": 1042,
    "name": "Бурунди",
    "code": "BI"
  },
  {
    "id": 1043,
    "name": "Бенин",
    "code": "BJ"
  },
  {
    "id": 1044,
    "name": "Saint Barthélemy",
    "code": "BL"
  },
  {
    "id": 1045,
    "name": "Бермудские острова",
    "code": "BM"
  },
  {
    "id": 1046,
    "name": "Бруней",
    "code": "BN"
  },
  {
    "id": 1047,
    "name": "Боливия",
    "code": "BO"
  },
  {
    "id": 1048,
    "name": "Bonaire, Sint Eustatius and Saba",
    "code": "BQ"
  },
  {
    "id": 1049,
    "name": "Бразилия",
    "code": "BR"
  },
  {
    "id": 1050,
    "name": "Багамские острова",
    "code": "BS"
  },
  {
    "id": 1051,
    "name": "Бутан",
    "code": "BT"
  },
  {
    "id": 1052,
    "name": "Bouvet Island",
    "code": "BV"
  },
  {
    "id": 1053,
    "name": "Ботсвана",
    "code": "BW"
  },
  {
    "id": 1054,
    "name": "Беларусь",
    "code": "BY"
  },
  {
    "id": 1055,
    "name": "Белиз",
    "code": "BZ"
  },
  {
    "id": 1056,
    "name": "Канада",
    "code": "CA"
  },
  {
    "id": 1057,
    "name": "Cocos Islands",
    "code": "CC"
  },
  {
    "id": 1058,
    "name": "The Democratic Republic Of Congo",
    "code": "CD"
  },
  {
    "id": 1059,
    "name": "Центральноафриканская Республика",
    "code": "CF"
  },
  {
    "id": 1060,
    "name": "Конго",
    "code": "CG"
  },
  {
    "id": 1061,
    "name": "Швейцария",
    "code": "CH"
  },
  {
    "id": 1062,
    "name": "Кот-д'Ивуар",
    "code": "CI"
  },
  {
    "id": 1063,
    "name": "Cook Islands",
    "code": "CK"
  },
  {
    "id": 1064,
    "name": "Чили",
    "code": "CL"
  },
  {
    "id": 1065,
    "name": "Камерун",
    "code": "CM"
  },
  {
    "id": 1066,
    "name": "Китай",
    "code": "CN"
  },
  {
    "id": 1067,
    "name": "Колумбия",
    "code": "CO"
  },
  {
    "id": 1068,
    "name": "Коста-Рика",
    "code": "CR"
  },
  {
    "id": 1069,
    "name": "Куба",
    "code": "CU"
  },
  {
    "id": 1070,
    "name": "Зеленый Мыс",
    "code": "CV"
  },
  {
    "id": 1071,
    "name": "Curaçao",
    "code": "CW"
  },
  {
    "id": 1072,
    "name": "Christmas Island",
    "code": "CX"
  },
  {
    "id": 1073,
    "name": "Кипр",
    "code": "CY"
  },
  {
    "id": 1074,
    "name": "Чехия",
    "code": "CZ"
  },
  {
    "id": 1075,
    "name": "Германия",
    "code": "DE"
  },
  {
    "id": 1076,
    "name": "Джибути",
    "code": "DJ"
  },
  {
    "id": 1077,
    "name": "Дания",
    "code": "DK"
  },
  {
    "id": 1078,
    "name": "Доминика",
    "code": "DM"
  },
  {
    "id": 1079,
    "name": "Доминиканская Республика",
    "code": "DO"
  },
  {
    "id": 1080,
    "name": "Алжир",
    "code": "DZ"
  },
  {
    "id": 1081,
    "name": "Эквадор",
    "code": "EC"
  },
  {
    "id": 1082,
    "name": "Эстония",
    "code": "EE"
  },
  {
    "id": 1083,
    "name": "Египт",
    "code": "EG"
  },
  {
    "id": 1084,
    "name": "Западная Сахара",
    "code": "EH"
  },
  {
    "id": 1085,
    "name": "Эритрея",
    "code": "ER"
  },
  {
    "id": 1086,
    "name": "Испания",
    "code": "ES"
  },
  {
    "id": 1087,
    "name": "Эфиопия",
    "code": "ET"
  },
  {
    "id": 1088,
    "name": "Финляндия",
    "code": "FI"
  },
  {
    "id": 1089,
    "name": "Фиджи",
    "code": "FJ"
  },
  {
    "id": 1090,
    "name": "Falkland Islands",
    "code": "FK"
  },
  {
    "id": 1091,
    "name": "Микронезия",
    "code": "FM"
  },
  {
    "id": 1092,
    "name": "Faroe Islands",
    "code": "FO"
  },
  {
    "id": 1093,
    "name": "Франция",
    "code": "FR"
  },
  {
    "id": 1094,
    "name": "Габон",
    "code": "GA"
  },
  {
    "id": 1095,
    "name": "Соединенное Королевство",
    "code": "GB"
  },
  {
    "id": 1096,
    "name": "Grenada",
    "code": "GD"
  },
  {
    "id": 1097,
    "name": "Грузия",
    "code": "GE"
  },
  {
    "id": 1098,
    "name": "Французская Гвинея",
    "code": "GF"
  },
  {
    "id": 1099,
    "name": "Guernsey",
    "code": "GG"
  },
  {
    "id": 1100,
    "name": "Гана",
    "code": "GH"
  },
  {
    "id": 1101,
    "name": "Gibraltar",
    "code": "GI"
  },
  {
    "id": 1102,
    "name": "Greenland",
    "code": "GL"
  },
  {
    "id": 1103,
    "name": "Гамбия",
    "code": "GM"
  },
  {
    "id": 1104,
    "name": "Гвинея",
    "code": "GN"
  },
  {
    "id": 1105,
    "name": "Гваделупа",
    "code": "GP"
  },
  {
    "id": 1106,
    "name": "Экваториальная Гвинея",
    "code": "GQ"
  },
  {
    "id": 1107,
    "name": "Греция",
    "code": "GR"
  },
  {
    "id": 1108,
    "name": "South Georgia And The South Sandwich Islands",
    "code": "GS"
  },
  {
    "id": 1109,
    "name": "Гватемала",
    "code": "GT"
  },
  {
    "id": 1110,
    "name": "Guam",
    "code": "GU"
  },
  {
    "id": 1111,
    "name": "Гвинея-Бисау",
    "code": "GW"
  },
  {
    "id": 1112,
    "name": "Гайана",
    "code": "GY"
  },
  {
    "id": 1113,
    "name": "Гонконг",
    "code": "HK"
  },
  {
    "id": 1114,
    "name": "Heard Island And McDonald Islands",
    "code": "HM"
  },
  {
    "id": 1115,
    "name": "Гондурас",
    "code": "HN"
  },
  {
    "id": 1116,
    "name": "Хорватия",
    "code": "HR"
  },
  {
    "id": 1117,
    "name": "Гаити",
    "code": "HT"
  },
  {
    "id": 1118,
    "name": "Венгрия",
    "code": "HU"
  },
  {
    "id": 1119,
    "name": "Индонезия",
    "code": "ID"
  },
  {
    "id": 1120,
    "name": "Ирландия",
    "code": "IE"
  },
  {
    "id": 1121,
    "name": "Израиль",
    "code": "IL"
  },
  {
    "id": 1122,
    "name": "Isle Of Man",
    "code": "IM"
  },
  {
    "id": 1123,
    "name": "Индия",
    "code": "IN"
  },
  {
    "id": 1124,
    "name": "British Indian Ocean Territory",
    "code": "IO"
  },
  {
    "id": 1125,
    "name": "Ирак",
    "code": "IQ"
  },
  {
    "id": 1126,
    "name": "Иран",
    "code": "IR"
  },
  {
    "id": 1127,
    "name": "Исландия",
    "code": "IS"
  },
  {
    "id": 1128,
    "name": "Италия",
    "code": "IT"
  },
  {
    "id": 1129,
    "name": "Jersey",
    "code": "JE"
  },
  {
    "id": 1130,
    "name": "Ямайка",
    "code": "JM"
  },
  {
    "id": 1131,
    "name": "Иордания",
    "code": "JO"
  },
  {
    "id": 1132,
    "name": "Япония",
    "code": "JP"
  },
  {
    "id": 1133,
    "name": "Кения",
    "code": "KE"
  },
  {
    "id": 1134,
    "name": "Киргизстан",
    "code": "KG"
  },
  {
    "id": 1135,
    "name": "Камбоджа",
    "code": "KH"
  },
  {
    "id": 1136,
    "name": "Кирибати",
    "code": "KI"
  },
  {
    "id": 1137,
    "name": "Коморос",
    "code": "KM"
  },
  {
    "id": 1138,
    "name": "Saint Kitts And Nevis",
    "code": "KN"
  },
  {
    "id": 1139,
    "name": "Северная Корея",
    "code": "KP"
  },
  {
    "id": 1140,
    "name": "Южная Корея",
    "code": "KR"
  },
  {
    "id": 1141,
    "name": "Кувейт",
    "code": "KW"
  },
  {
    "id": 1142,
    "name": "Cayman Islands",
    "code": "KY"
  },
  {
    "id": 1143,
    "name": "Казахстан",
    "code": "KZ"
  },
  {
    "id": 1144,
    "name": "Лаос",
    "code": "LA"
  },
  {
    "id": 1145,
    "name": "Ливан",
    "code": "LB"
  },
  {
    "id": 1146,
    "name": "Saint Lucia",
    "code": "LC"
  },
  {
    "id": 1147,
    "name": "Лихтенштейн",
    "code": "LI"
  },
  {
    "id": 1148,
    "name": "Шри-Ланка",
    "code": "LK"
  },
  {
    "id": 1149,
    "name": "Либерия",
    "code": "LR"
  },
  {
    "id": 1150,
    "name": "Лесото",
    "code": "LS"
  },
  {
    "id": 1151,
    "name": "Литва",
    "code": "LT"
  },
  {
    "id": 1152,
    "name": "Люксембург",
    "code": "LU"
  },
  {
    "id": 1153,
    "name": "Латвия",
    "code": "LV"
  },
  {
    "id": 1154,
    "name": "Ливия",
    "code": "LY"
  },
  {
    "id": 1155,
    "name": "Марокко",
    "code": "MA"
  },
  {
    "id": 1156,
    "name": "Монако",
    "code": "MC"
  },
  {
    "id": 1157,
    "name": "Молдова",
    "code": "MD"
  },
  {
    "id": 1158,
    "name": "Montenegro",
    "code": "ME"
  },
  {
    "id": 1159,
    "name": "Saint Martin",
    "code": "MF"
  },
  {
    "id": 1160,
    "name": "Мадагаскар",
    "code": "MG"
  },
  {
    "id": 1161,
    "name": "Marshall Islands",
    "code": "MH"
  },
  {
    "id": 1162,
    "name": "Македония",
    "code": "MK"
  },
  {
    "id": 1163,
    "name": "Мали",
    "code": "ML"
  },
  {
    "id": 1164,
    "name": "Мьянма",
    "code": "MM"
  },
  {
    "id": 1165,
    "name": "Монголия",
    "code": "MN"
  },
  {
    "id": 1166,
    "name": "Macao",
    "code": "MO"
  },
  {
    "id": 1167,
    "name": "Northern Mariana Islands",
    "code": "MP"
  },
  {
    "id": 1168,
    "name": "Мартиника",
    "code": "MQ"
  },
  {
    "id": 1169,
    "name": "Мавритания",
    "code": "MR"
  },
  {
    "id": 1170,
    "name": "Монтсерат",
    "code": "MS"
  },
  {
    "id": 1171,
    "name": "Мальта",
    "code": "MT"
  },
  {
    "id": 1172,
    "name": "Маврикий",
    "code": "MU"
  },
  {
    "id": 1173,
    "name": "Maldives",
    "code": "MV"
  },
  {
    "id": 1174,
    "name": "Malawi",
    "code": "MW"
  },
  {
    "id": 1175,
    "name": "Мексика",
    "code": "MX"
  },
  {
    "id": 1176,
    "name": "Малайзия",
    "code": "MY"
  },
  {
    "id": 1177,
    "name": "Мозамбик",
    "code": "MZ"
  },
  {
    "id": 1178,
    "name": "Намибия",
    "code": "NA"
  },
  {
    "id": 1179,
    "name": "Новая Каледония",
    "code": "NC"
  },
  {
    "id": 1180,
    "name": "Нигер",
    "code": "NE"
  },
  {
    "id": 1181,
    "name": "Norfolk Island",
    "code": "NF"
  },
  {
    "id": 1182,
    "name": "Нигерия",
    "code": "NG"
  },
  {
    "id": 1183,
    "name": "Никарагуа",
    "code": "NI"
  },
  {
    "id": 1184,
    "name": "Нидерланды",
    "code": "NL"
  },
  {
    "id": 1185,
    "name": "Норвегия",
    "code": "NO"
  },
  {
    "id": 1186,
    "name": "Непал",
    "code": "NP"
  },
  {
    "id": 1187,
    "name": "Nauru",
    "code": "NR"
  },
  {
    "id": 1188,
    "name": "Нию",
    "code": "NU"
  },
  {
    "id": 1189,
    "name": "Новая Зеландия",
    "code": "NZ"
  },
  {
    "id": 1190,
    "name": "Оман",
    "code": "OM"
  },
  {
    "id": 1191,
    "name": "Панама",
    "code": "PA"
  },
  {
    "id": 1192,
    "name": "Перу",
    "code": "PE"
  },
  {
    "id": 1193,
    "name": "Французская Полинезия",
    "code": "PF"
  },
  {
    "id": 1194,
    "name": "Папуа - Новая Гвинея",
    "code": "PG"
  },
  {
    "id": 1195,
    "name": "Филиппины",
    "code": "PH"
  },
  {
    "id": 1196,
    "name": "Пакистан",
    "code": "PK"
  },
  {
    "id": 1197,
    "name": "Польша",
    "code": "PL"
  },
  {
    "id": 1198,
    "name": "Saint Pierre And Miquelon",
    "code": "PM"
  },
  {
    "id": 1199,
    "name": "Pitcairn",
    "code": "PN"
  },
  {
    "id": 1200,
    "name": "Пуэрто-Рико",
    "code": "PR"
  },
  {
    "id": 1201,
    "name": "Palestine",
    "code": "PS"
  },
  {
    "id": 1202,
    "name": "Португалия",
    "code": "PT"
  },
  {
    "id": 1203,
    "name": "Palau",
    "code": "PW"
  },
  {
    "id": 1204,
    "name": "Парагвай",
    "code": "PY"
  },
  {
    "id": 1205,
    "name": "Катар",
    "code": "QA"
  },
  {
    "id": 1206,
    "name": "Reunion",
    "code": "RE"
  },
  {
    "id": 1207,
    "name": "Румыния",
    "code": "RO"
  },
  {
    "id": 1208,
    "name": "Serbia",
    "code": "RS"
  },
  {
    "id": 1209,
    "name": "Россия",
    "code": "RU"
  },
  {
    "id": 1210,
    "name": "Руанда",
    "code": "RW"
  },
  {
    "id": 1211,
    "name": "Саудовская Аравия",
    "code": "SA"
  },
  {
    "id": 1212,
    "name": "Solomon Islands",
    "code": "SB"
  },
  {
    "id": 1213,
    "name": "Сейшельские Острова",
    "code": "SC"
  },
  {
    "id": 1214,
    "name": "Судан",
    "code": "SD"
  },
  {
    "id": 1215,
    "name": "Швеция",
    "code": "SE"
  },
  {
    "id": 1216,
    "name": "Сингапур",
    "code": "SG"
  },
  {
    "id": 1217,
    "name": "Saint Helena",
    "code": "SH"
  },
  {
    "id": 1218,
    "name": "Словения",
    "code": "SI"
  },
  {
    "id": 1219,
    "name": "Svalbard And Jan Mayen",
    "code": "SJ"
  },
  {
    "id": 1220,
    "name": "Словакия",
    "code": "SK"
  },
  {
    "id": 1221,
    "name": "Сьерра-Леоне",
    "code": "SL"
  },
  {
    "id": 1222,
    "name": "San Marino",
    "code": "SM"
  },
  {
    "id": 1223,
    "name": "Сенегал",
    "code": "SN"
  },
  {
    "id": 1224,
    "name": "Сомали",
    "code": "SO"
  },
  {
    "id": 1225,
    "name": "Суринам",
    "code": "SR"
  },
  {
    "id": 1226,
    "name": "South Sudan",
    "code": "SS"
  },
  {
    "id": 1227,
    "name": "Sao Tome And Principe",
    "code": "ST"
  },
  {
    "id": 1228,
    "name": "Сальвадор",
    "code": "SV"
  },
  {
    "id": 1229,
    "name": "Sint Maarten (Dutch part)",
    "code": "SX"
  },
  {
    "id": 1230,
    "name": "Сирия",
    "code": "SY"
  },
  {
    "id": 1231,
    "name": "Свазиленд",
    "code": "SZ"
  },
  {
    "id": 1232,
    "name": "Turks And Caicos Islands",
    "code": "TC"
  },
  {
    "id": 1233,
    "name": "Чад",
    "code": "TD"
  },
  {
    "id": 1234,
    "name": "французские южные территории",
    "code": "TF"
  },
  {
    "id": 1235,
    "name": "Того",
    "code": "TG"
  },
  {
    "id": 1236,
    "name": "Таиланд",
    "code": "TH"
  },
  {
    "id": 1237,
    "name": "Таджикистан",
    "code": "TJ"
  },
  {
    "id": 1238,
    "name": "Токелау",
    "code": "TK"
  },
  {
    "id": 1239,
    "name": "Timor-Leste",
    "code": "TL"
  },
  {
    "id": 1240,
    "name": "Туркменистан",
    "code": "TM"
  },
  {
    "id": 1241,
    "name": "Тунис",
    "code": "TN"
  },
  {
    "id": 1242,
    "name": "Тонга",
    "code": "TO"
  },
  {
    "id": 1243,
    "name": "Турция",
    "code": "TR"
  },
  {
    "id": 1244,
    "name": "Тринидад и Тобаго",
    "code": "TT"
  },
  {
    "id": 1245,
    "name": "Tuvalu",
    "code": "TV"
  },
  {
    "id": 1246,
    "name": "Тайвань",
    "code": "TW"
  },
  {
    "id": 1247,
    "name": "Танзания",
    "code": "TZ"
  },
  {
    "id": 1248,
    "name": "Украина",
    "code": "UA"
  },
  {
    "id": 1249,
    "name": "Уганда",
    "code": "UG"
  },
  {
    "id": 1250,
    "name": "United States Minor Outlying Islands",
    "code": "UM"
  },
  {
    "id": 1251,
    "name": "Соединенные Штаты",
    "code": "US"
  },
  {
    "id": 1252,
    "name": "Уругвай",
    "code": "UY"
  },
  {
    "id": 1253,
    "name": "Узбекистан",
    "code": "UZ"
  },
  {
    "id": 1254,
    "name": "Ватикан",
    "code": "VA"
  },
  {
    "id": 1255,
    "name": "Saint Vincent And The Grenadines",
    "code": "VC"
  },
  {
    "id": 1256,
    "name": "Венесуэла",
    "code": "VE"
  },
  {
    "id": 1257,
    "name": "Британские Виргинские острова",
    "code": "VG"
  },
  {
    "id": 1258,
    "name": "Виргинские острова Соединенных Штатов",
    "code": "VI"
  },
  {
    "id": 1259,
    "name": "Вьетнам",
    "code": "VN"
  },
  {
    "id": 1260,
    "name": "Вануату",
    "code": "VU"
  },
  {
    "id": 1261,
    "name": "Wallis And Futuna",
    "code": "WF"
  },
  {
    "id": 1262,
    "name": "Samoa",
    "code": "WS"
  },
  {
    "id": 1263,
    "name": "Йемен",
    "code": "YE"
  },
  {
    "id": 1264,
    "name": "Майотте",
    "code": "YT"
  },
  {
    "id": 1265,
    "name": "Южная Африка",
    "code": "ZA"
  },
  {
    "id": 1266,
    "name": "Замбия",
    "code": "ZM"
  },
  {
    "id": 1267,
    "name": "Зимбабве",
    "code": "ZW"
  }
]
